<svg viewBox="0 0 32 32" xmlns="http://www.w3.org/2000/svg" version="1.1">
    <path fill="#d24d57" d="M 16 4 L 16 5 L 18 5 L 18 12 L 25 12 L 25 27 L 7 27 L 7 19 L 6 19 L 6 28 L 26 28 L 26 11 L 19 4 L 16 4 Z"/>
    <path fill="#d24d57" d="M 6 4 L 6 18 L 10.5 15 L 15 18 L 15 4 L 6 4 Z M 13 8 C 12.08 10.361 10.191 11.443 8 13 C 8.833 8.506 9.4 8 13 8 Z"/>
</svg>
